<svg width="32" height="34" viewBox="0 0 32 34" fill="none" xmlns="http://www.w3.org/2000/svg">
<g clip-path="url(#clip0)">
<path d="M0.0101823 17.2436V2.54616C-0.0114057 2.2563 0.0250858 1.96504 0.117526 1.68946C0.209966 1.41389 0.356494 1.15952 0.548512 0.941311C0.711028 0.758482 0.832925 0.717853 1.03607 0.941311L10.9393 11.0173C13.0825 13.1909 15.2155 15.3645 17.3688 17.528C17.572 17.7413 17.5923 17.8531 17.3688 18.0664C12.1209 23.3007 6.87645 28.535 1.63534 33.7694C1.58393 33.833 1.51892 33.8843 1.44511 33.9195C1.3713 33.9548 1.29056 33.9731 1.20875 33.9731C1.12695 33.9731 1.04618 33.9548 0.97237 33.9195C0.898555 33.8843 0.833554 33.833 0.782139 33.7694C0.527445 33.5687 0.324479 33.3101 0.190184 33.015C0.0558884 32.7199 -0.00584493 32.397 0.0101823 32.0731C0.0101823 29.1682 0.0101823 26.2632 0.0101823 23.3582V17.2639V17.2436Z" fill="#015A80"/>
<path d="M1.88928 0.382477C2.22665 0.374157 2.55892 0.466069 2.84406 0.646574L22.9756 11.921C23.2905 12.0937 23.2804 12.1851 23.0467 12.4188C21.5435 13.8916 20.0504 15.3846 18.5674 16.8778C18.4049 17.0301 18.3135 17.1317 18.09 16.8778C12.7609 11.4606 7.4182 6.0197 2.06197 0.555132L1.88928 0.382477Z" fill="#015A80"/>
<path d="M3.39258 33.6169C8.26803 28.7008 13.1367 23.778 17.9986 18.8483C18.3033 18.5436 18.4354 18.5843 18.7096 18.8483C19.9386 20.1383 21.1981 21.408 22.4576 22.6675C22.6709 22.8909 22.6912 22.9823 22.3967 23.1448L3.64651 33.4239C3.54494 33.495 3.44336 33.5864 3.39258 33.6169Z" fill="#015A80"/>
<path d="M31.213 17.3756C31.2068 17.6189 31.1428 17.8573 31.0262 18.071C30.9096 18.2848 30.7438 18.4676 30.5426 18.6046C30.2432 18.8134 29.9311 19.0033 29.6081 19.1734L23.9404 22.3018C23.8952 22.3392 23.8428 22.3669 23.7865 22.3831C23.7301 22.3993 23.6711 22.4038 23.6129 22.3962C23.5548 22.3885 23.4988 22.369 23.4486 22.3388C23.3983 22.3086 23.3548 22.2683 23.3208 22.2206C21.9801 20.8392 20.619 19.4578 19.2579 18.0967C19.065 17.8936 19.0548 17.7819 19.2579 17.5889C20.8425 16.0247 22.4236 14.4503 24.0013 12.8658C24.0313 12.8233 24.0698 12.7875 24.1143 12.7607C24.1588 12.7339 24.2085 12.7166 24.26 12.7099C24.3116 12.7032 24.3639 12.7073 24.4138 12.7219C24.4637 12.7365 24.51 12.7613 24.5498 12.7947C26.4086 13.8104 28.2877 14.8972 30.1566 15.9434C30.4474 16.0618 30.6999 16.2582 30.8863 16.5109C31.0726 16.7636 31.1857 17.0628 31.213 17.3756Z" fill="#015A80"/>
</g>
<defs>
<clipPath id="clip0">
<rect width="31.2131" height="33.6" fill="white" transform="translate(0 0.382568)"/>
</clipPath>
</defs>
</svg>
