<svg width="60" height="67" viewBox="0 0 60 67" fill="none" xmlns="http://www.w3.org/2000/svg">
<path opacity="0.7" d="M60 45.125V21.2679C60 17.925 58.2143 14.8393 55.3286 13.1679L34.6714 1.25357C31.7714 -0.417857 28.2143 -0.417857 25.3143 1.25357L4.67143 13.1821C1.78571 14.8536 0 17.9393 0 21.2679V45.1107C0 48.4536 1.78571 51.5393 4.67143 53.2107L25.3143 65.1393C28.2143 66.8107 31.7714 66.8107 34.6714 65.1393L55.3143 53.2107C58.2143 51.5393 60 48.4536 60 45.125Z" fill="#A2EFFF"/>
</svg>
