<svg width="24" height="24" viewBox="0 0 24 24" fill="none" xmlns="http://www.w3.org/2000/svg">
<path d="M9.51992 12L16.5899 4.93004C16.9799 4.54004 16.9799 3.91004 16.5899 3.52004C16.1999 3.13004 15.5699 3.13004 15.1799 3.52004L7.39992 11.29C7.00992 11.68 7.00992 12.31 7.39992 12.7L15.1799 20.48C15.3799 20.68 15.6299 20.77 15.8899 20.77C16.1499 20.77 16.3999 20.67 16.5999 20.48C16.9899 20.09 16.9899 19.46 16.5999 19.07L9.51992 12Z" fill="#15A0BE"/>
</svg>
