<svg width="24" height="24" viewBox="0 0 24 24" fill="none" xmlns="http://www.w3.org/2000/svg">
<path fill-rule="evenodd" clip-rule="evenodd" d="M10.5 11.0293C10.5 10.2009 11.1716 9.5293 12 9.5293C12.8284 9.5293 13.5 10.2009 13.5 11.0293C13.5 11.8577 12.8284 12.5293 12 12.5293C11.1716 12.5293 10.5 11.8577 10.5 11.0293ZM12 8.5293C10.6193 8.5293 9.5 9.64858 9.5 11.0293C9.5 12.2388 10.3589 13.2477 11.5 13.4793V19.0793C11.5 19.3593 11.72 19.5793 12 19.5793C12.28 19.5793 12.5 19.3593 12.5 19.0793V13.4793C13.6411 13.2477 14.5 12.2388 14.5 11.0293C14.5 9.64858 13.3807 8.5293 12 8.5293Z" fill="#015A80"/>
<path d="M8.70957 15.5098C8.57957 15.5098 8.44957 15.4598 8.35957 15.3598C7.19957 14.1998 6.55957 12.6498 6.55957 11.0098C6.55957 9.36977 7.19957 7.81977 8.35957 6.65977C8.55957 6.45977 8.86957 6.45977 9.06957 6.65977C9.26957 6.85977 9.26957 7.16977 9.06957 7.36977C8.09957 8.33977 7.55957 9.63977 7.55957 11.0098C7.55957 12.3798 8.09957 13.6798 9.06957 14.6498C9.26957 14.8498 9.26957 15.1598 9.06957 15.3598C8.96957 15.4598 8.83957 15.5098 8.70957 15.5098Z" fill="#19D6FF"/>
<path d="M6.33988 17.0195C6.20988 17.0195 6.07988 16.9695 5.98988 16.8695C2.75988 13.6495 2.75988 8.39953 5.98988 5.16953C6.18988 4.96953 6.49988 4.96953 6.69988 5.16953C6.89988 5.36953 6.89988 5.67953 6.69988 5.87953C3.86988 8.70953 3.86988 13.3295 6.69988 16.1595C6.89988 16.3595 6.89988 16.6695 6.69988 16.8695C6.59988 16.9795 6.46988 17.0195 6.33988 17.0195Z" fill="#19D6FF"/>
<path d="M15.2893 15.5098C15.4193 15.5098 15.5493 15.4598 15.6393 15.3598C16.7993 14.1998 17.4393 12.6498 17.4393 11.0098C17.4393 9.36977 16.7993 7.81977 15.6393 6.65977C15.4393 6.45977 15.1293 6.45977 14.9293 6.65977C14.7293 6.85977 14.7293 7.16977 14.9293 7.36977C15.8993 8.33977 16.4393 9.63977 16.4393 11.0098C16.4393 12.3798 15.8993 13.6798 14.9293 14.6498C14.7293 14.8498 14.7293 15.1598 14.9293 15.3598C15.0293 15.4598 15.1593 15.5098 15.2893 15.5098Z" fill="#19D6FF"/>
<path d="M17.6604 17.0195C17.7904 17.0195 17.9204 16.9695 18.0104 16.8695C21.2404 13.6495 21.2404 8.39953 18.0104 5.16953C17.8104 4.96953 17.5004 4.96953 17.3004 5.16953C17.1004 5.36953 17.1004 5.67953 17.3004 5.87953C20.1304 8.70953 20.1304 13.3295 17.3004 16.1595C17.1004 16.3595 17.1004 16.6695 17.3004 16.8695C17.4004 16.9795 17.5304 17.0195 17.6604 17.0195Z" fill="#19D6FF"/>
</svg>
