<svg width="24" height="24" viewBox="0 0 24 24" fill="none" xmlns="http://www.w3.org/2000/svg">
<path fill-rule="evenodd" clip-rule="evenodd" d="M10.5387 3.05766C11.2019 1.92876 12.8474 1.9287 13.5108 3.05748C13.5108 3.05754 13.5107 3.05741 13.5108 3.05748L18.0424 10.7632C18.8005 11.8796 19.249 13.2305 19.2598 14.6672L19.2598 14.6709C19.2598 18.5897 16.0031 21.7409 12.0098 21.7409C8.01642 21.7409 4.75977 18.5897 4.75977 14.6709C4.75977 13.0959 5.29233 11.6498 6.1736 10.4823L10.5387 3.05766ZM12.6487 3.56421C12.3719 3.09318 11.6776 3.09318 11.4009 3.56421L7.00566 11.0401L6.98757 11.0638C6.2198 12.0721 5.75977 13.3169 5.75977 14.6709C5.75977 18.0122 8.54311 20.7409 12.0098 20.7409C15.4758 20.7409 18.2588 18.0132 18.2598 14.6728C18.2501 13.4362 17.8625 12.2732 17.2068 11.3129L17.1973 11.2989L12.6487 3.56421Z" fill="white"/>
<path d="M15.6198 12.9109C15.9567 12.9109 16.2298 12.6423 16.2298 12.3109C16.2298 11.9796 15.9567 11.7109 15.6198 11.7109C15.2829 11.7109 15.0098 11.9796 15.0098 12.3109C15.0098 12.6423 15.2829 12.9109 15.6198 12.9109Z" fill="#19D6FF"/>
<path fill-rule="evenodd" clip-rule="evenodd" d="M16.2295 13.8301C16.5057 13.8301 16.7295 14.0539 16.7295 14.3301C16.7295 16.1608 15.7555 17.7345 14.2631 18.7619C14.0356 18.9185 13.7243 18.8611 13.5677 18.6336C13.4111 18.4061 13.4686 18.0948 13.696 17.9382C14.9636 17.0656 15.7295 15.7794 15.7295 14.3301C15.7295 14.0539 15.9534 13.8301 16.2295 13.8301Z" fill="#19D6FF"/>
</svg>
