<svg width="24" height="24" viewBox="0 0 24 24" fill="none" xmlns="http://www.w3.org/2000/svg">
<path d="M19.5 3.9707H4.5C3.12 3.9707 2 5.0907 2 6.4707V17.4807C2 18.8607 3.12 19.9807 4.5 19.9807H9.97C10.25 19.9807 10.47 19.7607 10.47 19.4807C10.47 19.2007 10.25 18.9807 9.97 18.9807H4.5C3.67 18.9807 3 18.3107 3 17.4807V6.4707C3 5.6407 3.67 4.9707 4.5 4.9707H19.5C20.33 4.9707 21 5.6407 21 6.4707V17.4807C21 18.3107 20.33 18.9807 19.5 18.9807H13.97V18.9907C13.71 19.0107 13.51 19.2207 13.51 19.4807C13.51 19.7407 13.72 19.9507 13.97 19.9707V19.9807H14H19.49C20.87 19.9807 21.99 18.8607 21.99 17.4807V6.4707C22 5.0907 20.88 3.9707 19.5 3.9707Z" fill="#015A80"/>
<path d="M11.9697 19.9902C12.2459 19.9902 12.4697 19.7664 12.4697 19.4902C12.4697 19.2141 12.2459 18.9902 11.9697 18.9902C11.6936 18.9902 11.4697 19.2141 11.4697 19.4902C11.4697 19.7664 11.6936 19.9902 11.9697 19.9902Z" fill="#015A80"/>
<path d="M14.4697 22H9.46973C9.18973 22 8.96973 21.78 8.96973 21.5C8.96973 21.22 9.19973 21 9.46973 21H14.4697C14.7497 21 14.9697 21.22 14.9697 21.5C14.9697 21.78 14.7497 22 14.4697 22Z" fill="#015A80"/>
<path d="M14.3598 13.461C14.2198 13.461 14.0698 13.421 13.9498 13.331C12.7798 12.481 11.2198 12.481 10.0498 13.331C9.73978 13.561 9.29978 13.491 9.06978 13.171C8.83978 12.861 8.90978 12.421 9.22978 12.191C10.8898 10.991 13.1198 10.991 14.7798 12.191C15.0898 12.421 15.1598 12.861 14.9398 13.171C14.7898 13.361 14.5798 13.461 14.3598 13.461Z" fill="#19D6FF"/>
<path d="M16.0306 11.2114C15.8906 11.2114 15.7406 11.1714 15.6206 11.0814C13.4606 9.51141 10.5506 9.51141 8.3906 11.0814C8.0806 11.3114 7.6406 11.2414 7.4106 10.9314C7.1806 10.6214 7.2506 10.1814 7.5706 9.95141C10.2306 8.02141 13.8006 8.02141 16.4506 9.95141C16.7606 10.1814 16.8306 10.6214 16.6006 10.9314C16.4606 11.1114 16.2406 11.2114 16.0306 11.2114Z" fill="#19D6FF"/>
<path d="M12.09 15.4905C12.5539 15.4905 12.93 15.1145 12.93 14.6505C12.93 14.1866 12.5539 13.8105 12.09 13.8105C11.6261 13.8105 11.25 14.1866 11.25 14.6505C11.25 15.1145 11.6261 15.4905 12.09 15.4905Z" fill="#19D6FF"/>
</svg>
